Cust_No|Cust_name|Join_Date|Credit_Limit
105|Bill Adams|2010-01-02|5000.00
109|Mary Jones|2010-12-13|5000.00
102|Sue Smith|2010-05-06|4000.00
106|Sam Clark|2010-03-28|8000.00
104|Bob Smith|2010-10-23|7000.00
101|Dan Roberts|2010-08-09|7000.00
110|Tom Snyder|2010-12-09|7000.00
108|Larry Fitch|2010-03-15|3000.00
103|Paul Cruz|2010-07-14|5000.00
107|Nancy Angelli|2010-11-01|6000.00
