symbol,date,price
RELIANCE,2023-07-17,2796.7
SBIN,2023-07-17,601.1
TCS,2023-07-17,3491.7
RELIANCE,2023-07-18,2820.45
SBIN,2023-07-18,592.35
TCS,2023-07-18,3496.85
RELIANCE,2023-07-19,2841.85
SBIN,2023-07-19,601.45
TCS,2023-07-19,3470.05
