105|2528.00|2100.00|428.00
102|2023.00|2023.00|0.00
106|1654.00|1654.00|0.00
104|2890.00|3000.00|-110.00
101|1180.00|1200.00|-20.00
108|1247.00|1250.00|-3.00
103|1441.00|1000|441.00
107|1610.00|1500.00|110.00
